<?xml version="1.0" encoding="UTF-8" standalone="no"?>
<svg
   xmlns:dc="http://purl.org/dc/elements/1.1/"
   xmlns:cc="http://creativecommons.org/ns#"
   xmlns:rdf="http://www.w3.org/1999/02/22-rdf-syntax-ns#"
   xmlns:svg="http://www.w3.org/2000/svg"
   xmlns="http://www.w3.org/2000/svg"
   xmlns:xlink="http://www.w3.org/1999/xlink"
   xmlns:sodipodi="http://sodipodi.sourceforge.net/DTD/sodipodi-0.dtd"
   xmlns:inkscape="http://www.inkscape.org/namespaces/inkscape"
   width="128"
   height="128"
   id="svg11300"
   version="1.0"
   style="display:inline;enable-background:new"
   viewBox="0 0 128 128"
   sodipodi:docname="nl.brixit.powersupply.svg"
   inkscape:version="0.92.4 5da689c313, 2019-01-14">
  <sodipodi:namedview
     pagecolor="#ffffff"
     bordercolor="#666666"
     borderopacity="1"
     objecttolerance="10"
     gridtolerance="10"
     guidetolerance="10"
     inkscape:pageopacity="0"
     inkscape:pageshadow="2"
     inkscape:window-width="1920"
     inkscape:window-height="1016"
     id="namedview20224"
     showgrid="false"
     inkscape:zoom="6.578125"
     inkscape:cx="64"
     inkscape:cy="64"
     inkscape:window-x="0"
     inkscape:window-y="387"
     inkscape:window-maximized="1"
     inkscape:current-layer="svg11300" />
  <title
     id="title4162">Adwaita Icon Template</title>
  <defs
     id="defs3">
    <linearGradient
       inkscape:collect="always"
       id="linearGradient20232">
      <stop
         style="stop-color:#5d9466;stop-opacity:1;"
         offset="0"
         id="stop20228" />
      <stop
         style="stop-color:#5d9466;stop-opacity:0;"
         offset="1"
         id="stop20230" />
    </linearGradient>
    <linearGradient
       id="linearGradient1076">
      <stop
         style="stop-color:#d5d3cf;stop-opacity:1"
         offset="0"
         id="stop1064" />
      <stop
         id="stop1066"
         offset="0.03571428"
         style="stop-color:#e4e1de;stop-opacity:1" />
      <stop
         style="stop-color:#d5d3cf;stop-opacity:1"
         offset="0.07142857"
         id="stop1068" />
      <stop
         id="stop1070"
         offset="0.9285714"
         style="stop-color:#d5d3cf;stop-opacity:1" />
      <stop
         style="stop-color:#e4e1de;stop-opacity:1"
         offset="0.96428573"
         id="stop1072" />
      <stop
         style="stop-color:#d5d3cf;stop-opacity:1"
         offset="1"
         id="stop1074" />
    </linearGradient>
    <linearGradient
       xlink:href="#linearGradient1076"
       id="linearGradient1444-2-3-2"
       gradientUnits="userSpaceOnUse"
       gradientTransform="matrix(0.25,0,0,0.25,-22,109.00903)"
       x1="120"
       y1="619.96387"
       x2="568"
       y2="619.96387" />
    <linearGradient
       xlink:href="#linearGradient985"
       id="linearGradient1106-8"
       x1="335.86829"
       y1="33.559235"
       x2="112.13174"
       y2="33.559235"
       gradientUnits="userSpaceOnUse"
       gradientTransform="matrix(0.25,0,0,0.25,-12,225)" />
    <linearGradient
       id="linearGradient985">
      <stop
         id="stop981"
         offset="0"
         style="stop-color:#f9f06b;stop-opacity:1" />
      <stop
         id="stop983"
         offset="1"
         style="stop-color:#f9f06b;stop-opacity:0" />
    </linearGradient>
    <radialGradient
       xlink:href="#linearGradient1020"
       id="radialGradient1030"
       cx="64.846146"
       cy="194.19048"
       fx="64.846146"
       fy="194.19048"
       r="44"
       gradientTransform="matrix(-4.7272726,1.1058296e-6,-3.0301491e-7,-1.2272727,250.54547,-21.6754)"
       gradientUnits="userSpaceOnUse" />
    <linearGradient
       id="linearGradient1020">
      <stop
         style="stop-color:#ffffff;stop-opacity:1;"
         offset="0"
         id="stop1016" />
      <stop
         style="stop-color:#ffffff;stop-opacity:0.09411765"
         offset="1"
         id="stop1018" />
    </linearGradient>
    <linearGradient
       y2="619.96387"
       x2="568"
       y1="619.96387"
       x1="120"
       gradientTransform="matrix(0.25,0,0,0.25,-22.00001,-50.99097)"
       gradientUnits="userSpaceOnUse"
       id="linearGradient1444-2-3-3"
       xlink:href="#linearGradient1076" />
    <radialGradient
       gradientUnits="userSpaceOnUse"
       gradientTransform="matrix(-4.1363634,1.2532736e-6,-2.6513804e-7,-1.3909091,319.22728,170.63455)"
       r="44"
       fy="194.19048"
       fx="63.999996"
       cy="194.19048"
       cx="63.999996"
       id="radialGradient1030-8"
       xlink:href="#linearGradient1020" />
    <linearGradient
       gradientTransform="matrix(0.25,0,0,0.25,-8.0807701,46.102138)"
       gradientUnits="userSpaceOnUse"
       y2="33.559235"
       x2="104"
       y1="33.559235"
       x1="301"
       id="linearGradient1106-2"
       xlink:href="#linearGradient985" />
    <linearGradient
       inkscape:collect="always"
       xlink:href="#linearGradient20232"
       id="linearGradient20234"
       x1="15.961995"
       y1="76.931117"
       x2="100"
       y2="76.931117"
       gradientUnits="userSpaceOnUse" />
    <clipPath
       clipPathUnits="userSpaceOnUse"
       id="clipPath20238">
      <rect
         style="opacity:0.5979999;fill:#5d9466;fill-opacity:1;stroke:none;stroke-opacity:1"
         id="rect20240"
         width="84"
         height="68"
         x="16"
         y="36"
         ry="1.5" />
    </clipPath>
  </defs>
  <metadata
     id="metadata4">
    <rdf:RDF>
      <cc:Work
         rdf:about="">
        <dc:format>image/svg+xml</dc:format>
        <dc:type
           rdf:resource="http://purl.org/dc/dcmitype/StillImage" />
        <dc:creator>
          <cc:Agent>
            <dc:title>GNOME Design Team</dc:title>
          </cc:Agent>
        </dc:creator>
        <dc:source />
        <cc:license
           rdf:resource="http://creativecommons.org/licenses/by-sa/4.0/" />
        <dc:title>Adwaita Icon Template</dc:title>
        <dc:subject>
          <rdf:Bag />
        </dc:subject>
        <dc:date />
        <dc:rights>
          <cc:Agent>
            <dc:title />
          </cc:Agent>
        </dc:rights>
        <dc:publisher>
          <cc:Agent>
            <dc:title />
          </cc:Agent>
        </dc:publisher>
        <dc:identifier />
        <dc:relation />
        <dc:language />
        <dc:coverage />
        <dc:description />
        <dc:contributor>
          <cc:Agent>
            <dc:title />
          </cc:Agent>
        </dc:contributor>
      </cc:Work>
      <cc:License
         rdf:about="http://creativecommons.org/licenses/by-sa/4.0/">
        <cc:permits
           rdf:resource="http://creativecommons.org/ns#Reproduction" />
        <cc:permits
           rdf:resource="http://creativecommons.org/ns#Distribution" />
        <cc:requires
           rdf:resource="http://creativecommons.org/ns#Notice" />
        <cc:requires
           rdf:resource="http://creativecommons.org/ns#Attribution" />
        <cc:permits
           rdf:resource="http://creativecommons.org/ns#DerivativeWorks" />
        <cc:requires
           rdf:resource="http://creativecommons.org/ns#ShareAlike" />
      </cc:License>
    </rdf:RDF>
  </metadata>
  <rect
     style="display:inline;opacity:1;vector-effect:none;fill:#f6f5f4;fill-opacity:1;stroke:none;stroke-width:0.01129821px;stroke-linecap:butt;stroke-linejoin:miter;stroke-miterlimit:4;stroke-dasharray:none;stroke-dashoffset:0;stroke-opacity:1;marker:none;marker-start:none;marker-mid:none;marker-end:none;paint-order:normal;enable-background:new"
     id="rect929-36-9-9"
     width="112"
     height="86"
     x="8"
     y="28"
     rx="7.9999995"
     ry="7.999999" />
  <rect
     rx="3.9999998"
     style="display:inline;opacity:1;vector-effect:none;fill:#1f3122;fill-opacity:1;stroke:none;stroke-width:0.01129821px;stroke-linecap:butt;stroke-linejoin:miter;stroke-miterlimit:4;stroke-dasharray:none;stroke-dashoffset:0;stroke-opacity:1;marker:none;marker-start:none;marker-mid:none;marker-end:none;paint-order:normal;enable-background:new"
     id="rect946-0-7-4"
     width="92"
     height="76"
     x="12"
     y="32"
     ry="4" />
  <path
     style="display:inline;opacity:1;vector-effect:none;fill:url(#linearGradient1444-2-3-3);fill-opacity:1;stroke:none;stroke-width:0.01129821px;stroke-linecap:butt;stroke-linejoin:miter;stroke-miterlimit:4;stroke-dasharray:none;stroke-dashoffset:0;stroke-opacity:1;marker:none;marker-start:none;marker-mid:none;marker-end:none;paint-order:normal;enable-background:new"
     d="m 7.99999,104 v 4 c 0,4.432 3.568,8 8,8 h 96 c 4.432,0 8,-3.568 8,-8 v -4 c 0,4.432 -3.568,8 -8,8 h -96 c -4.432,0 -8,-3.568 -8,-8 z"
     id="rect929-3-6-3-9" />
  <rect
     y="-104"
     x="16"
     height="68"
     width="84"
     id="rect968-2"
     style="display:inline;opacity:0.05;vector-effect:none;fill:url(#radialGradient1030-8);fill-opacity:1;stroke:none;stroke-width:0.01121096px;stroke-linecap:butt;stroke-linejoin:miter;stroke-miterlimit:4;stroke-dasharray:none;stroke-dashoffset:0;stroke-opacity:1;marker:none;marker-start:none;marker-mid:none;marker-end:none;paint-order:normal;enable-background:new"
     transform="scale(1,-1)" />
  <path
     style="fill:url(#linearGradient20234);stroke:none;stroke-width:1px;stroke-linecap:butt;stroke-linejoin:miter;stroke-opacity:1;fill-opacity:1"
     d="M 15.961995,50.014252 16,104 h 84 L 99.876485,97.5962 70.232779,84.218527 62.175772,76.921615 52.142518,59.743468 37.852732,49.862233 Z"
     id="path20226"
     inkscape:connector-curvature="0" />
  <path
     id="path1092-6-1-3-7-5-5"
     style="display:inline;opacity:1;fill:none;fill-opacity:1;stroke:#0ae534;stroke-width:4;stroke-linecap:butt;stroke-linejoin:miter;stroke-miterlimit:10;stroke-dasharray:none;stroke-opacity:1;enable-background:new"
     d="m 13.263648,49.068884 27.064133,1.672209 14.256532,11.96437 6.304038,10.11639 4.351544,6.954869 36.128265,21.130638"
     inkscape:connector-curvature="0"
     sodipodi:nodetypes="cccccc"
     clip-path="url(#clipPath20238)" />
  <g
     transform="translate(0,-170)"
     id="g1063">
    <path
       style="display:inline;opacity:1;vector-effect:none;fill:#949390;fill-opacity:1;stroke:none;stroke-width:3.99999952;stroke-linecap:round;stroke-linejoin:miter;stroke-miterlimit:4;stroke-dasharray:none;stroke-dashoffset:0;stroke-opacity:1;marker:none;marker-start:none;marker-mid:none;marker-end:none;paint-order:normal;enable-background:new"
       d="m 115.99999,232 v 4 c 0,2.20914 -1.79086,4 -4,4 -2.20914,0 -4,-1.79086 -4,-4 v -2 l 4,-2 z"
       id="path1066"
       inkscape:connector-curvature="0" />
    <path
       id="path1074"
       d="m 115.99999,248 v 6 h -4 c -2.216,0 -4,-1.784 -4,-4 v -2 z"
       style="display:inline;opacity:1;vector-effect:none;fill:#949390;fill-opacity:1;stroke:none;stroke-width:4;stroke-linecap:round;stroke-linejoin:miter;stroke-miterlimit:4;stroke-dasharray:none;stroke-dashoffset:0;stroke-opacity:1;marker:none;marker-start:none;marker-mid:none;marker-end:none;paint-order:normal;enable-background:new"
       inkscape:connector-curvature="0" />
    <path
       id="path1076"
       d="m 115.99999,252 v -4 a 4,3.9999998 0 0 0 -4,-4 4,3.9999998 0 0 0 -4,4 4,3.9999998 0 0 0 4,4 z"
       style="display:inline;opacity:1;vector-effect:none;fill:#d5d3cf;fill-opacity:1;stroke:none;stroke-width:3.99999952;stroke-linecap:round;stroke-linejoin:miter;stroke-miterlimit:4;stroke-dasharray:none;stroke-dashoffset:0;stroke-opacity:1;marker:none;marker-start:none;marker-mid:none;marker-end:none;paint-order:normal;enable-background:new"
       inkscape:connector-curvature="0" />
    <ellipse
       ry="1.0000002"
       rx="1"
       cy="250"
       cx="-113.99997"
       id="ellipse1078"
       style="display:inline;opacity:1;vector-effect:none;fill:#68676b;fill-opacity:1;stroke:none;stroke-width:3.99999952;stroke-linecap:round;stroke-linejoin:miter;stroke-miterlimit:4;stroke-dasharray:none;stroke-dashoffset:0;stroke-opacity:1;marker:none;marker-start:none;marker-mid:none;marker-end:none;paint-order:normal;enable-background:new"
       transform="scale(-1,1)" />
    <path
       style="display:inline;opacity:1;vector-effect:none;fill:#d5d3cf;fill-opacity:1;stroke:none;stroke-width:3.99999952;stroke-linecap:round;stroke-linejoin:miter;stroke-miterlimit:4;stroke-dasharray:none;stroke-dashoffset:0;stroke-opacity:1;marker:none;marker-start:none;marker-mid:none;marker-end:none;paint-order:normal;enable-background:new"
       d="m 115.99999,230 v 4 a 4,3.9999998 0 0 1 -4,4 4,3.9999998 0 0 1 -4,-4 4,3.9999998 0 0 1 4,-4 z"
       id="path1080"
       inkscape:connector-curvature="0" />
    <ellipse
       transform="scale(-1)"
       style="display:inline;opacity:1;vector-effect:none;fill:#68676b;fill-opacity:1;stroke:none;stroke-width:3.99999952;stroke-linecap:round;stroke-linejoin:miter;stroke-miterlimit:4;stroke-dasharray:none;stroke-dashoffset:0;stroke-opacity:1;marker:none;marker-start:none;marker-mid:none;marker-end:none;paint-order:normal;enable-background:new"
       id="ellipse1082"
       cx="-113.99997"
       cy="-232"
       rx="1"
       ry="1.0000002" />
    <path
       id="path1084"
       d="m 107.99999,218 v 4 c 0,2.20914 1.79086,4 4,4 2.20914,0 4,-1.79086 4,-4 v -2 l -4,-2 z"
       style="display:inline;opacity:1;vector-effect:none;fill:#949390;fill-opacity:1;stroke:none;stroke-width:3.99999952;stroke-linecap:round;stroke-linejoin:miter;stroke-miterlimit:4;stroke-dasharray:none;stroke-dashoffset:0;stroke-opacity:1;marker:none;marker-start:none;marker-mid:none;marker-end:none;paint-order:normal;enable-background:new"
       inkscape:connector-curvature="0" />
    <path
       id="path1086"
       d="m 107.99999,216 v 4 a 4,3.9999998 0 0 0 4,4 4,3.9999998 0 0 0 4,-4 4,3.9999998 0 0 0 -4,-4 z"
       style="display:inline;opacity:1;vector-effect:none;fill:#d5d3cf;fill-opacity:1;stroke:none;stroke-width:3.99999952;stroke-linecap:round;stroke-linejoin:miter;stroke-miterlimit:4;stroke-dasharray:none;stroke-dashoffset:0;stroke-opacity:1;marker:none;marker-start:none;marker-mid:none;marker-end:none;paint-order:normal;enable-background:new"
       inkscape:connector-curvature="0" />
    <ellipse
       ry="1.0000002"
       rx="1"
       cy="-218"
       cx="109.99997"
       id="ellipse1088"
       style="display:inline;opacity:1;vector-effect:none;fill:#68676b;fill-opacity:1;stroke:none;stroke-width:3.99999952;stroke-linecap:round;stroke-linejoin:miter;stroke-miterlimit:4;stroke-dasharray:none;stroke-dashoffset:0;stroke-opacity:1;marker:none;marker-start:none;marker-mid:none;marker-end:none;paint-order:normal;enable-background:new"
       transform="scale(1,-1)" />
    <path
       style="display:inline;opacity:1;vector-effect:none;fill:#949390;fill-opacity:1;stroke:none;stroke-width:4;stroke-linecap:round;stroke-linejoin:miter;stroke-miterlimit:4;stroke-dasharray:none;stroke-dashoffset:0;stroke-opacity:1;marker:none;marker-start:none;marker-mid:none;marker-end:none;paint-order:normal;enable-background:new"
       d="m 115.99999,206 v 6 h -4 c -2.216,0 -4,-1.784 -4,-4 v -2 z"
       id="path1090"
       inkscape:connector-curvature="0" />
    <path
       style="display:inline;opacity:1;vector-effect:none;fill:#d5d3cf;fill-opacity:1;stroke:none;stroke-width:3.99999952;stroke-linecap:round;stroke-linejoin:miter;stroke-miterlimit:4;stroke-dasharray:none;stroke-dashoffset:0;stroke-opacity:1;marker:none;marker-start:none;marker-mid:none;marker-end:none;paint-order:normal;enable-background:new"
       d="m 115.99999,210 v -4 a 4,3.9999998 0 0 0 -4,-4 4,3.9999998 0 0 0 -4,4 4,3.9999998 0 0 0 4,4 z"
       id="path1092"
       inkscape:connector-curvature="0" />
    <ellipse
       transform="scale(-1,1)"
       style="display:inline;opacity:1;vector-effect:none;fill:#68676b;fill-opacity:1;stroke:none;stroke-width:3.99999952;stroke-linecap:round;stroke-linejoin:miter;stroke-miterlimit:4;stroke-dasharray:none;stroke-dashoffset:0;stroke-opacity:1;marker:none;marker-start:none;marker-mid:none;marker-end:none;paint-order:normal;enable-background:new"
       id="ellipse1094"
       cx="-113.99997"
       cy="208"
       rx="1"
       ry="1.0000002" />
  </g>
</svg>
